<svg id="bus" xmlns="http://www.w3.org/2000/svg" width="157.624" height="157.624" viewBox="0 0 157.624 157.624">
  <g id="Groupe_33" data-name="Groupe 33" transform="translate(76.22)">
    <g id="Groupe_32" data-name="Groupe 32">
      <path id="Tracé_19" data-name="Tracé 19" d="M252.835.9a3.079,3.079,0,0,0-5.255,2.177A3.079,3.079,0,1,0,252.835.9Z" transform="translate(-247.58)" fill="#fff"/>
    </g>
  </g>
  <g id="Groupe_35" data-name="Groupe 35">
    <g id="Groupe_34" data-name="Groupe 34">
      <path id="Tracé_20" data-name="Tracé 20" d="M151.467,29.752V21.086A8.478,8.478,0,0,0,143,12.617h-5.345A15.416,15.416,0,0,0,122.515,0H92.46a3.079,3.079,0,0,0,0,6.157h30.055a9.246,9.246,0,0,1,9.236,9.236v9.236H102.209V15.393a3.079,3.079,0,0,0-3.079-3.079H58.493a3.079,3.079,0,0,0-3.079,3.079v9.236H25.9V15.393a9.246,9.246,0,0,1,9.236-9.236h30.9a3.079,3.079,0,0,0,0-6.157h-30.9A15.415,15.415,0,0,0,20,12.617H14.626a8.478,8.478,0,0,0-8.469,8.469v8.666A9.25,9.25,0,0,0,0,38.458v11.5a9.236,9.236,0,1,0,18.472,0v-11.5a9.251,9.251,0,0,0-6.157-8.706V21.086a2.314,2.314,0,0,1,2.311-2.311h5.118V120.989a15.41,15.41,0,0,0,8.939,13.969v10.967a11.7,11.7,0,1,0,23.4,0v-9.544h53.542v9.544a11.7,11.7,0,0,0,23.4,0v-10.99a15.411,15.411,0,0,0,8.889-13.947V18.774H143a2.314,2.314,0,0,1,2.311,2.311v8.666a9.25,9.25,0,0,0-6.157,8.706v11.5a9.236,9.236,0,1,0,18.472,0v-11.5A9.251,9.251,0,0,0,151.467,29.752ZM12.314,49.963a3.079,3.079,0,0,1-6.157,0v-11.5a3.079,3.079,0,0,1,6.157,0ZM100.56,30.786l-9.59,9.59a3.079,3.079,0,1,0,4.354,4.354l13.944-13.944h18.114L81.892,76.276V30.786ZM61.572,18.472h34.48v6.157H61.572Zm1.01,53.752a3.08,3.08,0,0,0-4.354,0L39.092,91.36H37.119L27.6,81.839,75.735,33.7V91.36H47.8L62.582,76.577A3.078,3.078,0,0,0,62.582,72.224ZM25.9,30.786H69.943L25.9,74.828ZM45.923,145.925a5.541,5.541,0,0,1-11.083,0v-9.544H45.923Zm76.939,0a5.541,5.541,0,0,1-11.083,0v-9.544h11.083Zm8.889-24.937a9.246,9.246,0,0,1-9.236,9.236H35.136a9.246,9.246,0,0,1-9.236-9.236V88.849l7.766,7.766a3.079,3.079,0,0,0,2.177.9H121.78a3.079,3.079,0,0,0,2.177-.9l7.794-7.794Zm0-40.875L120.5,91.36H81.892V84.984l49.86-49.859Zm19.715-30.15a3.079,3.079,0,1,1-6.157,0v-11.5a3.079,3.079,0,1,1,6.157,0Z" fill="#fff"/>
    </g>
  </g>
  <g id="Groupe_37" data-name="Groupe 37" transform="translate(33.878 104.635)">
    <g id="Groupe_36" data-name="Groupe 36">
      <path id="Tracé_21" data-name="Tracé 21" d="M119.28,339.88a9.236,9.236,0,1,0,9.236,9.236A9.246,9.246,0,0,0,119.28,339.88Zm0,12.314a3.079,3.079,0,1,1,3.079-3.079A3.082,3.082,0,0,1,119.28,352.194Z" transform="translate(-110.044 -339.88)" fill="#fff"/>
    </g>
  </g>
  <g id="Groupe_39" data-name="Groupe 39" transform="translate(105.274 104.635)">
    <g id="Groupe_38" data-name="Groupe 38">
      <path id="Tracé_22" data-name="Tracé 22" d="M351.192,339.88a9.236,9.236,0,1,0,9.236,9.236A9.246,9.246,0,0,0,351.192,339.88Zm0,12.314a3.079,3.079,0,1,1,3.079-3.079A3.082,3.082,0,0,1,351.192,352.194Z" transform="translate(-341.956 -339.88)" fill="#fff"/>
    </g>
  </g>
  <g id="Groupe_41" data-name="Groupe 41" transform="translate(59.75 104.635)">
    <g id="Groupe_40" data-name="Groupe 40">
      <path id="Tracé_23" data-name="Tracé 23" d="M229.179,339.88H197.162a3.079,3.079,0,0,0-3.079,3.079v12.314a3.079,3.079,0,0,0,3.079,3.079h32.017a3.079,3.079,0,0,0,3.079-3.079V342.959A3.079,3.079,0,0,0,229.179,339.88ZM226.1,352.194H200.24v-6.157H226.1Z" transform="translate(-194.083 -339.88)" fill="#fff"/>
    </g>
  </g>
</svg>
