<svg xmlns="http://www.w3.org/2000/svg" width="157.5" height="115.399" viewBox="0 0 157.5 115.399">
  <g id="subway" transform="translate(0 -68.43)">
    <g id="Groupe_31" data-name="Groupe 31" transform="translate(0 68.43)">
      <path id="Tracé_14" data-name="Tracé 14" d="M155.886,138.517c-.925-5.793-2.154-11.536-3.582-17.225-.4-1.585-.806-3.168-1.242-4.742A22.871,22.871,0,0,0,129.05,99.729H85.037V95.42A9.146,9.146,0,0,0,75.9,86.285H63.187l4.433-3.535a3.076,3.076,0,0,0-.023-4.829l-4.271-3.339h51.536a3.076,3.076,0,1,0,0-6.152h-99.1a3.076,3.076,0,1,0,0,6.152h37.57l7.4,5.786-7.418,5.916h-11.1a9.146,9.146,0,0,0-9.135,9.135v4.309H3.076a3.076,3.076,0,1,0,0,6.152H129.05a16.708,16.708,0,0,1,14.467,8.408H123.4a3.076,3.076,0,0,0-2.868,1.963l-7.42,19.117a3.075,3.075,0,0,0-.209,1.113v9.2a3.076,3.076,0,0,0,3.076,3.076h11.259l11.393,7.117a3.075,3.075,0,0,0,1.63.467h11.087c0,.1,0,.2,0,.3v9.016H3.076a3.076,3.076,0,0,0,0,6.152h22.98a15.1,15.1,0,0,0,26.814,6.045A15.1,15.1,0,0,0,79.684,171.8h36.29a15.1,15.1,0,0,0,29.574,0h8.876a3.076,3.076,0,0,0,3.076-3.076V156.635a116.88,116.88,0,0,0-1.614-18.118ZM39.236,99.729V95.42a2.986,2.986,0,0,1,2.983-2.983H75.9a2.986,2.986,0,0,1,2.983,2.983v4.309Zm1.607,77.948a8.966,8.966,0,0,1-8.406-5.873H49.249a8.965,8.965,0,0,1-8.406,5.873Zm24.054,0a8.966,8.966,0,0,1-8.406-5.873H73.3A8.966,8.966,0,0,1,64.9,177.677Zm65.864,0a8.966,8.966,0,0,1-8.406-5.873h16.811a8.966,8.966,0,0,1-8.406,5.873Zm20.332-27.491H141.14l-11.393-7.117a3.075,3.075,0,0,0-1.63-.467h-9.065v-5.543l6.45-16.617h20.232a187.853,187.853,0,0,1,4.642,22.893c.3,2.277.547,4.561.716,6.852Z" transform="translate(0 -68.43)" fill="#fff"/>
      <path id="Tracé_15" data-name="Tracé 15" d="M231.829,240.333a3.076,3.076,0,0,0,3.076-3.076v-20.2a3.076,3.076,0,0,0-3.076-3.076h-42.2a3.076,3.076,0,0,0-3.076,3.076v20.2a3.076,3.076,0,0,0,3.076,3.076Zm-3.076-6.152H213.805V220.129h14.948ZM192.7,220.129h14.948V234.18H192.7Z" transform="translate(-129.165 -169.204)" fill="#fff"/>
      <path id="Tracé_16" data-name="Tracé 16" d="M3.076,240.333h42.2a3.076,3.076,0,0,0,3.076-3.076v-20.2a3.076,3.076,0,0,0-3.076-3.076H3.076A3.076,3.076,0,0,0,0,217.053v20.2A3.076,3.076,0,0,0,3.076,240.333ZM42.2,234.18H27.253V220.129H42.2ZM6.152,220.129H21.1V234.18H6.152Z" transform="translate(0 -169.204)" fill="#fff"/>
      <path id="Tracé_17" data-name="Tracé 17" d="M3.076,335.83h99.588a3.076,3.076,0,0,0,0-6.152H3.076a3.076,3.076,0,0,0,0,6.152Z" transform="translate(0 -249.314)" fill="#fff"/>
      <path id="Tracé_18" data-name="Tracé 18" d="M.253,72.7a3.1,3.1,0,0,0,4.014,1.664,3.073,3.073,0,1,0-2.353-5.679A3.1,3.1,0,0,0,.253,72.7Z" transform="translate(-0.016 -68.446)" fill="#fff"/>
    </g>
  </g>
</svg>
