<svg xmlns="http://www.w3.org/2000/svg" width="160.606" height="91.503" viewBox="0 0 160.606 91.503">
  <g id="train_1_" data-name="train (1)" transform="translate(0 -110.148)">
    <g id="Groupe_24" data-name="Groupe 24" transform="translate(0.001 110.148)">
      <g id="Groupe_23" data-name="Groupe 23" transform="translate(0 0)">
        <path id="Tracé_10" data-name="Tracé 10" d="M157.476,195.384H124.126a9.355,9.355,0,0,0,.539-3.134v-3.134h15.476A20.307,20.307,0,0,0,154.5,154.451l-2.021-2.021-17.548-17.548h0l-8.94-8.94a53.565,53.565,0,0,0-38.126-15.792H3.138a3.134,3.134,0,0,0,0,6.267H87.863a47.338,47.338,0,0,1,33.694,13.957l3.592,3.592H89.04a11.908,11.908,0,1,0,0,23.816h59.925l1.1,1.1a14.039,14.039,0,0,1-9.927,23.966h-137a3.134,3.134,0,0,0,0,6.267h13.95v3.134a9.356,9.356,0,0,0,.539,3.134H3.3a3.134,3.134,0,1,0,0,6.267H55.945a3.134,3.134,0,1,0,0-6.267H35.351a9.355,9.355,0,0,0,.539-3.134v-3.134h69.974v3.134a9.356,9.356,0,0,0,.539,3.134h-26a3.134,3.134,0,1,0,0,6.267h77.074a3.134,3.134,0,0,0,0-6.268ZM89.04,151.512a5.641,5.641,0,1,1,0-11.281h42.377L142.7,151.512H89.04ZM29.622,192.25a3.134,3.134,0,1,1-6.267,0v-3.134h6.267v3.134Zm88.776,0a3.134,3.134,0,1,1-6.267,0v-3.134H118.4v3.134Z" transform="translate(-0.004 -110.148)" fill="#fff"/>
      </g>
    </g>
    <g id="Groupe_26" data-name="Groupe 26" transform="translate(65.03 195.384)">
      <g id="Groupe_25" data-name="Groupe 25" transform="translate(0 0)">
        <path id="Tracé_11" data-name="Tracé 11" d="M212.658,382.79a3.132,3.132,0,1,0,.918,2.216A3.157,3.157,0,0,0,212.658,382.79Z" transform="translate(-207.309 -381.872)" fill="#fff"/>
      </g>
    </g>
    <g id="Groupe_28" data-name="Groupe 28" transform="translate(0.001 133.964)">
      <g id="Groupe_27" data-name="Groupe 27" transform="translate(0 0)">
        <path id="Tracé_12" data-name="Tracé 12" d="M52.023,186.071H15.1a3.134,3.134,0,0,0,0,6.267h36.92a5.641,5.641,0,1,1,0,11.281H3.138a3.134,3.134,0,1,0,0,6.267H52.023a11.908,11.908,0,0,0,0-23.816Z" transform="translate(-0.004 -186.071)" fill="#fff"/>
      </g>
    </g>
    <g id="Groupe_30" data-name="Groupe 30" transform="translate(0 133.964)">
      <g id="Groupe_29" data-name="Groupe 29" transform="translate(0 0)">
        <path id="Tracé_13" data-name="Tracé 13" d="M5.349,186.989a3.131,3.131,0,1,0,.918,2.215A3.15,3.15,0,0,0,5.349,186.989Z" transform="translate(0 -186.071)" fill="#fff"/>
      </g>
    </g>
  </g>
</svg>
